r_file_name	r_condition	r_replicate	pipeline	r_condrep	Strip
200922_EX1_lgillet_LG005_085	Mock_Lip	1	Lip	Mock_Lip_1	1
200922_EX1_lgillet_LG005_086	Chloroxine10_Lip	1	Lip	Chloroxine10_Lip_1	1
200922_EX1_lgillet_LG005_087	Mock_Lip	2	Lip	Mock_Lip_2	1
200922_EX1_lgillet_LG005_088	Chloroxine10_Lip	2	Lip	Chloroxine10_Lip_2	1
200922_EX1_lgillet_LG005_089	Mock_Lip	3	Lip	Mock_Lip_3	1
200922_EX1_lgillet_LG005_090	Chloroxine10_Lip	3	Lip	Chloroxine10_Lip_3	1
200922_EX1_lgillet_LG005_091	Chloroxine1_Lip	1	Lip	Chloroxine1_Lip_1	2
200922_EX1_lgillet_LG005_092	Chloroxine0.1_Lip	1	Lip	Chloroxine0.1_Lip_1	2
200922_EX1_lgillet_LG005_093	Chloroxine1_Lip	2	Lip	Chloroxine1_Lip_2	2
200922_EX1_lgillet_LG005_094	Chloroxine0.1_Lip	2	Lip	Chloroxine0.1_Lip_2	2
200922_EX1_lgillet_LG005_095	Chloroxine1_Lip	3	Lip	Chloroxine1_Lip_3	2
200922_EX1_lgillet_LG005_096	Chloroxine0.1_Lip	3	Lip	Chloroxine0.1_Lip_3	2
200922_EX1_lgillet_LG005_097	Chloroxine0.01_Lip	1	Lip	Chloroxine0.01_Lip_1	3
200922_EX1_lgillet_LG005_098	Tiabendozole40_Lip	1	Lip	Tiabendozole40_Lip_1	3
200922_EX1_lgillet_LG005_099	Chloroxine0.01_Lip	2	Lip	Chloroxine0.01_Lip_2	3
200922_EX1_lgillet_LG005_100	Tiabendozole40_Lip	2	Lip	Tiabendozole40_Lip_2	3
200922_EX1_lgillet_LG005_101	Chloroxine0.01_Lip	3	Lip	Chloroxine0.01_Lip_3	3
200922_EX1_lgillet_LG005_102b	Tiabendozole40_Lip	3	Lip	Tiabendozole40_Lip_3	3
200922_EX1_lgillet_LG005_103	Suloctidil20_Lip	1	Lip	Suloctidil20_Lip_1	4
200922_EX1_lgillet_LG005_104	Thiethylperazine20_Lip	1	Lip	Thiethylperazine20_Lip_1	4
200922_EX1_lgillet_LG005_105	Suloctidil20_Lip	2	Lip	Suloctidil20_Lip_2	4
200922_EX1_lgillet_LG005_106	Thiethylperazine20_Lip	2	Lip	Thiethylperazine20_Lip_2	4
200922_EX1_lgillet_LG005_107	Suloctidil20_Lip	3	Lip	Suloctidil20_Lip_3	4
200922_EX1_lgillet_LG005_108	Thiethylperazine20_Lip	3	Lip	Thiethylperazine20_Lip_3	4
200922_EX1_lgillet_LG005_109	Mock2_Lip	1	Lip	Mock2_Lip_1	5
200922_EX1_lgillet_LG005_110	Tegaserod20_Lip	1	Lip	Tegaserod20_Lip_1	5
200922_EX1_lgillet_LG005_111	Mock2_Lip	2	Lip	Mock2_Lip_2	5
200922_EX1_lgillet_LG005_112	Tegaserod20_Lip	2	Lip	Tegaserod20_Lip_2	5
200922_EX1_lgillet_LG005_113	Mock2_Lip	3	Lip	Mock2_Lip_3	5
200922_EX1_lgillet_LG005_114	Tegaserod20_Lip	3	Lip	Tegaserod20_Lip_3	5
200922_EX1_lgillet_LG005_115	Mock_TC	1	TC	Mock_TC_1	6
200922_EX1_lgillet_LG005_116	Chloroxine10_TC	1	TC	Chloroxine10_TC_1	6
200922_EX1_lgillet_LG005_117	Mock_TC	2	TC	Mock_TC_2	6
200922_EX1_lgillet_LG005_118	Chloroxine10_TC	2	TC	Chloroxine10_TC_2	6
200922_EX1_lgillet_LG005_119	Mock_TC	3	TC	Mock_TC_3	6
200922_EX1_lgillet_LG005_120	Chloroxine10_TC	3	TC	Chloroxine10_TC_3	6
200922_EX1_lgillet_LG005_121	Chloroxine1_TC	1	TC	Chloroxine1_TC_1	7
200922_EX1_lgillet_LG005_122	Chloroxine0.1_TC	1	TC	Chloroxine0.1_TC_1	7
200922_EX1_lgillet_LG005_123	Chloroxine1_TC	2	TC	Chloroxine1_TC_2	7
200922_EX1_lgillet_LG005_124	Chloroxine0.1_TC	2	TC	Chloroxine0.1_TC_2	7
200922_EX1_lgillet_LG005_125	Chloroxine1_TC	3	TC	Chloroxine1_TC_3	7
200922_EX1_lgillet_LG005_126	Chloroxine0.1_TC	3	TC	Chloroxine0.1_TC_3	7
200922_EX1_lgillet_LG005_127	Chloroxine0.01_TC	1	TC	Chloroxine0.01_TC_1	8
200922_EX1_lgillet_LG005_128	Tiabendozole40_TC	1	TC	Tiabendozole40_TC_1	8
200922_EX1_lgillet_LG005_129	Chloroxine0.01_TC	2	TC	Chloroxine0.01_TC_2	8
200922_EX1_lgillet_LG005_130	Tiabendozole40_TC	2	TC	Tiabendozole40_TC_2	8
200922_EX1_lgillet_LG005_131	Chloroxine0.01_TC	3	TC	Chloroxine0.01_TC_3	8
200922_EX1_lgillet_LG005_132	Tiabendozole40_TC	3	TC	Tiabendozole40_TC_3	8
200922_EX1_lgillet_LG005_133	Suloctidil20_TC	1	TC	Suloctidil20_TC_1	9
200922_EX1_lgillet_LG005_134	Thiethylperazine20_TC	1	TC	Thiethylperazine20_TC_1	9
200922_EX1_lgillet_LG005_135	Suloctidil20_TC	2	TC	Suloctidil20_TC_2	9
200922_EX1_lgillet_LG005_136	Thiethylperazine20_TC	2	TC	Thiethylperazine20_TC_2	9
200922_EX1_lgillet_LG005_137	Suloctidil20_TC	3	TC	Suloctidil20_TC_3	9
200922_EX1_lgillet_LG005_138	Thiethylperazine20_TC	3	TC	Thiethylperazine20_TC_3	9
200922_EX1_lgillet_LG005_139	Mock2_TC	1	TC	Mock2_TC_1	10
200922_EX1_lgillet_LG005_140	Tegaserod20_TC	1	TC	Tegaserod20_TC_1	10
200922_EX1_lgillet_LG005_141	Mock2_TC	2	TC	Mock2_TC_2	10
200929_EX1_lgillet_LG005_142b	Tegaserod20_TC	2	TC	Tegaserod20_TC_2	10
200929_EX1_lgillet_LG005_143b	Mock2_TC	3	TC	Mock2_TC_3	10
200922_EX1_lgillet_LG005_144	Tegaserod20_TC	3	TC	Tegaserod20_TC_3	10
